{
  "AppSettings": {
    "SiteTitle": "WebApplication1"
  },
  "Data": {
    "DefaultConnection": {
      "ConnectionString": "Server=(localdb)\\mssqllocaldb;Database=aspnet5-WebApplication1-33b207a4-08f8-407f-832e-37f283081f85;Trusted_Connection=True;MultipleActiveResultSets=true"
    }
  }
}
